ano,arrecadacao
2000,32618862
2001,33688541
2002,37292971
2003,40289405
2004,45922206
2005,51001254
2006,57788447
2007,63192390
2008,74373238
2009,78572177
2010,92316756
2011,107726893
2012,109013538
2013,121912220
2014,122836141
2015,125990235
